{
  "current_page": 1,
  "data": [
    {
      "id": 14182,
      "year_in": null,
      "category_id": 2,
      "publisher_id": 7,
      "locker_id": 13,
      "book_number": "014188-2022",
      "creator": "Alexandre Dumas",
      "edition": "1",
      "origin_book": "YP SIM",
      "queue_of_examplar": 10242,
      "examplar": "0010242",
      "code_of_book": "0010242/2022/C1of1",
      "buying_year": "2012",
      "publish_year": "2012",
      "call_number": "0010242-14188",
      "name": "Three Musketeers",
      "description": null,
      "cover": null,
      "ready": 0,
      "created_at": "2022-02-04T03:18:28.000000Z",
      "updated_at": "2022-02-26T07:15:34.000000Z",
      "deleted_at": null,
      "borrowed": 20,
      "link_pdf": null,
      "no_panggil": "800 Ale T"
    },
    {
      "id": 14181,
      "year_in": null,
      "category_id": 29,
      "publisher_id": 202,
      "locker_id": 10,
      "book_number": "014187-2022",
      "creator": "Mulyadi",
      "edition": "1",
      "origin_book": "YP SIM",
      "queue_of_examplar": 10241,
      "examplar": "0010241",
      "code_of_book": "0010241/2022/C1of1",
      "buying_year": "2012",
      "publish_year": "2012",
      "call_number": "0010241-14187",
      "name": "Sistem Perencanaan dan Pengendalian Manajemen",
      "description": null,
      "cover": null,
      "ready": 0,
      "created_at": "2022-02-04T03:11:25.000000Z",
      "updated_at": "2022-02-24T08:22:49.000000Z",
      "deleted_at": null,
      "borrowed": 13,
      "link_pdf": null,
      "no_panggil": "658.401 2 MUL P"
    },
    {
      "id": 14180,
      "year_in": null,
      "category_id": 29,
      "publisher_id": 202,
      "locker_id": 10,
      "book_number": "014186-2022",
      "creator": "M. Nafarin",
      "edition": "3",
      "origin_book": "YP SIM",
      "queue_of_examplar": 10240,
      "examplar": "0010240",
      "code_of_book": "0010240/2022/C1of1",
      "buying_year": "2012",
      "publish_year": "2012",
      "call_number": "0010240-14186",
      "name": "Penganggaran Perusahaan",
      "description": null,
      "cover": null,
      "ready": 0,
      "created_at": "2022-02-04T03:09:22.000000Z",
      "updated_at": "2022-02-24T08:34:59.000000Z",
      "deleted_at": null,
      "borrowed": 3,
      "link_pdf": null,
      "no_panggil": "658.1 NAT P"
    },
    {
      "id": 14179,
      "year_in": null,
      "category_id": 29,
      "publisher_id": 44,
      "locker_id": 10,
      "book_number": "014185-2022",
      "creator": "Philip Kotler",
      "edition": "13",
      "origin_book": "YP SIM",
      "queue_of_examplar": 10239,
      "examplar": "0010239",
      "code_of_book": "0010239/2022/C1of1",
      "buying_year": "2012",
      "publish_year": "2012",
      "call_number": "0010239-14185",
      "name": "Manajemen Pemasaran",
      "description": null,
      "cover": null,
      "ready": 0,
      "created_at": "2022-02-04T03:07:07.000000Z",
      "updated_at": "2022-02-26T04:56:50.000000Z",
      "deleted_at": null,
      "borrowed": 10,
      "link_pdf": null,
      "no_panggil": "658.81 Phi M"
    },
    {
      "id": 14178,
      "year_in": null,
      "category_id": 42,
      "publisher_id": 206,
      "locker_id": 10,
      "book_number": "014184-2022",
      "creator": "Kieso Weygandt Warfield",
      "edition": "1",
      "origin_book": "YP SIM",
      "queue_of_examplar": 10238,
      "examplar": "0010238",
      "code_of_book": "0010238/2022/C1of1",
      "buying_year": "2012",
      "publish_year": "2012",
      "call_number": "0010238-14184",
      "name": "Intermediate Accounting Volume 2",
      "description": null,
      "cover": null,
      "ready": 0,
      "created_at": "2022-02-04T02:54:39.000000Z",
      "updated_at": "2022-02-24T13:02:15.000000Z",
      "deleted_at": null,
      "borrowed": 6,
      "link_pdf": null,
      "no_panggil": "657.044 Kie I"
    },
    {
      "id": 14177,
      "year_in": null,
      "category_id": 147,
      "publisher_id": 205,
      "locker_id": 4,
      "book_number": "014183-2022",
      "creator": "J. Smelser",
      "edition": "1",
      "origin_book": "YP SIM",
      "queue_of_examplar": 10237,
      "examplar": "0010237",
      "code_of_book": "0010237/2022/C1of1",
      "buying_year": "2012",
      "publish_year": "2012",
      "call_number": "0010237-14183",
      "name": "Sosiologi Ekonomi",
      "description": null,
      "cover": null,
      "ready": 0,
      "created_at": "2022-02-04T02:47:46.000000Z",
      "updated_at": "2022-02-26T02:41:59.000000Z",
      "deleted_at": null,
      "borrowed": 7,
      "link_pdf": null,
      "no_panggil": "306.3 SME S"
    }
  ],
  "first_page_url": "http://admin.ypsimlibrary.com/api/get-bypreference?page=1",
  "from": 1,
  "last_page": 2364,
  "last_page_url": "http://admin.ypsimlibrary.com/api/get-bypreference?page=2364",
  "links": [
    {
      "url": null,
      "label": "&laquo; Previous",
      "active": false
    },
    {
      "url": "http://admin.ypsimlibrary.com/api/get-bypreference?page=1",
      "label": "1",
      "active": true
    },
    {
      "url": "http://admin.ypsimlibrary.com/api/get-bypreference?page=2",
      "label": "2",
      "active": false
    },
    {
      "url": "http://admin.ypsimlibrary.com/api/get-bypreference?page=3",
      "label": "3",
      "active": false
    },
    {
      "url": "http://admin.ypsimlibrary.com/api/get-bypreference?page=4",
      "label": "4",
      "active": false
    },
    {
      "url": "http://admin.ypsimlibrary.com/api/get-bypreference?page=5",
      "label": "5",
      "active": false
    },
    {
      "url": "http://admin.ypsimlibrary.com/api/get-bypreference?page=6",
      "label": "6",
      "active": false
    },
    {
      "url": "http://admin.ypsimlibrary.com/api/get-bypreference?page=7",
      "label": "7",
      "active": false
    },
    {
      "url": "http://admin.ypsimlibrary.com/api/get-bypreference?page=8",
      "label": "8",
      "active": false
    },
    {
      "url": "http://admin.ypsimlibrary.com/api/get-bypreference?page=9",
      "label": "9",
      "active": false
    },
    {
      "url": "http://admin.ypsimlibrary.com/api/get-bypreference?page=10",
      "label": "10",
      "active": false
    },
    {
      "url": null,
      "label": "...",
      "active": false
    },
    {
      "url": "http://admin.ypsimlibrary.com/api/get-bypreference?page=2363",
      "label": "2363",
      "active": false
    },
    {
      "url": "http://admin.ypsimlibrary.com/api/get-bypreference?page=2364",
      "label": "2364",
      "active": false
    },
    {
      "url": "http://admin.ypsimlibrary.com/api/get-bypreference?page=2",
      "label": "Next &raquo;",
      "active": false
    }
  ],
  "next_page_url": "http://admin.ypsimlibrary.com/api/get-bypreference?page=2",
  "path": "http://admin.ypsimlibrary.com/api/get-bypreference",
  "per_page": 6,
  "prev_page_url": null,
  "to": 6,
  "total": 14180
}